{
  "name": "ExperimentMetaData",
  "fields": [
    {
      "fieldName": "description",
      "fieldType": "String",
      "fieldValidateRules": ["required"]
    },
    {
      "fieldName": "dataStructure",
      "fieldType": "byte[]",
      "fieldTypeBlobContent": "text",
      "fieldValidateRules": ["required"]
    }
  ],
  "relationships": [
    {
      "relationshipType": "one-to-many",
      "otherEntityName": "experimentData",
      "otherEntityRelationshipName": "experimentMetaData",
      "relationshipName": "experimentData"
    },
    {
      "relationshipType": "many-to-one",
      "otherEntityName": "experiment",
      "otherEntityRelationshipName": "experimentMetaData",
      "relationshipValidateRules": "required",
      "relationshipName": "experiment",
      "otherEntityField": "name"
    }
  ],
  "entityTableName": "experiment_meta_data",
  "dto": "no",
  "pagination": "pagination",
  "service": "serviceClass",
  "jpaMetamodelFiltering": false,
  "fluentMethods": true,
  "readOnly": false,
  "embedded": false,
  "applications": "*",
  "changelogDate": "20210614213315"
}
